Loading CIF specification "controllercheck/non_blocking_under_control/docs_example_2a.cif".
Checking for non-blocking under control:
    Converting CIF specification to a BDD representation:
        CIF variables and location pointers:
            Nr     Kind              Type  Name          Group  BDD vars  CIF values  BDD values  Values used
            -----  ----------------  ----  ------------  -----  --------  ----------  ----------  -----------
            1      location pointer  n/a   Supervisor2a  0      2 * 2     3 * 2       4 * 2       75%
            -----  ----------------  ----  ------------  -----  --------  ----------  ----------  -----------
            Total                                        1      4         6           8           75%

        Skipping variable ordering: only one variable present.

        Restricting system behavior using state/event exclusion plant invariants:
            No guards changed.

    Computing the condition for no controllable event to be enabled:
        Condition under which no controllable event is enabled: Supervisor2a.BothDone

    Computing the controllable-complete path states:
        Saturation matrix:
                                           /---- 1 Supervisor2a#0
                                           |/--- 2 Supervisor2a#0+
                                           ||/-- 3 Supervisor2a#1
                                           |||/- 4 Supervisor2a#1+
            1 Supervisor2a.c_act1          rwrw
            2 Supervisor2a.c_act2          rwrw
            3 Supervisor2a.u_button_pushed rwrw

        Controllable-complete path states: Supervisor2a.BothDone [controllable-complete path end states predicate]
        Controllable-complete path states: Supervisor2a.BothDone -> not Supervisor2a.Start [backward reach using saturation (transition: 2 of 3) (level: 1 of 4) with edge: (event: Supervisor2a.c_act2) (guard: Supervisor2a.Done1) (assignments: Supervisor2a := Supervisor2a.BothDone)]
        Controllable-complete path states: not Supervisor2a.Start -> true [backward reach using saturation (transition: 1 of 3) (level: 1 of 4) with edge: (event: Supervisor2a.c_act1) (guard: Supervisor2a.Start) (assignments: Supervisor2a := Supervisor2a.Done1)]

        Controllable-complete path states: true [fixed point].

        Controllable-complete path states: true

    Computing the bad states:
        Saturation matrix:
                                           /---- 1 Supervisor2a#0
                                           |/--- 2 Supervisor2a#0+
                                           ||/-- 3 Supervisor2a#1
                                           |||/- 4 Supervisor2a#1+
            1 Supervisor2a.c_act1          rwrw
            2 Supervisor2a.c_act2          rwrw
            3 Supervisor2a.u_button_pushed rwrw

        Bad states: false [not controllable-complete path states predicate]

        Bad states: false

    Computing the result of the non-blocking under control check:
        Initial states: Supervisor2a.Start
        Bad initial states: false

    Non-blocking under control: yes

CONCLUSION:
    [UNKNOWN] Bounded response checking was disabled, bounded response property is unknown.
    [OK] The specification is non-blocking under control.
    [UNKNOWN] Finite response checking was disabled, finite response property is unknown.
    [UNKNOWN] Confluence checking was disabled, confluence property is unknown.

The model with the check results has been written to "controllercheck/non_blocking_under_control/docs_example_2a.xxxN.out.cif.real".
