Loading CIF specification "controllercheck/bounded_response/bounded_even_odd_any.cif".
Checking for bounded response:
    Converting CIF specification to a BDD representation:
        CIF variables and location pointers:
            Nr     Kind               Type        Name       Group  BDD vars  CIF values  BDD values  Values used
            -----  -----------------  ----------  ---------  -----  --------  ----------  ----------  -----------
            1      discrete variable  int[0..25]  p.counter  0      5 * 2     26 * 2      32 * 2      ~81%
            -----  -----------------  ----------  ---------  -----  --------  ----------  ----------  -----------
            Total                                            1      10        52          64          ~81%

        Skipping variable ordering: only one variable present.

        Restricting system behavior using state/event exclusion plant invariants:
            No guards changed.

    Computing states we can be in at the start of uncontrollable and controllable event loops:
        Round 1:
            Pre input states: true
            Pre uncontrollables states: false
            Pre controllables states: false

            Applying event loop for input variable events:
                No input variable events.

            Pre uncontrollables states: false -> true

            Applying event loop for uncontrollable events:
                Iteration 1 (states before iteration: true):
                    Event u_dec_odd: true -> p.counter = 0 or (p.counter = 2 or p.counter = 4) or (p.counter = 6 or (p.counter = 8 or p.counter = 10)) or (p.counter = 12 or (p.counter = 14 or p.counter = 16) or (p.counter = 18 or p.counter = 20 or (p.counter = 22 or p.counter = 24)))
                    All iterations end states: p.counter = 0 or (p.counter = 2 or p.counter = 4) or (p.counter = 6 or (p.counter = 8 or p.counter = 10)) or (p.counter = 12 or (p.counter = 14 or p.counter = 16) or (p.counter = 18 or p.counter = 20 or (p.counter = 22 or p.counter = 24)))

                Iteration 2 (states before iteration: p.counter = 0 or (p.counter = 2 or p.counter = 4) or (p.counter = 6 or (p.counter = 8 or p.counter = 10)) or (p.counter = 12 or (p.counter = 14 or p.counter = 16) or (p.counter = 18 or p.counter = 20 or (p.counter = 22 or p.counter = 24)))):
                    0 edges enabled. No state changes.
                    All iterations end states: p.counter = 0 or (p.counter = 2 or p.counter = 4) or (p.counter = 6 or (p.counter = 8 or p.counter = 10)) or (p.counter = 12 or (p.counter = 14 or p.counter = 16) or (p.counter = 18 or p.counter = 20 or (p.counter = 22 or p.counter = 24)))

            Pre controllables states: false -> p.counter = 0 or (p.counter = 2 or p.counter = 4) or (p.counter = 6 or (p.counter = 8 or p.counter = 10)) or (p.counter = 12 or (p.counter = 14 or p.counter = 16) or (p.counter = 18 or p.counter = 20 or (p.counter = 22 or p.counter = 24)))

            Applying event loop for controllable events:
                Iteration 1 (states before iteration: p.counter = 0 or (p.counter = 2 or p.counter = 4) or (p.counter = 6 or (p.counter = 8 or p.counter = 10)) or (p.counter = 12 or (p.counter = 14 or p.counter = 16) or (p.counter = 18 or p.counter = 20 or (p.counter = 22 or p.counter = 24)))):
                    Event c_dec_even: p.counter = 0 or (p.counter = 2 or p.counter = 4) or (p.counter = 6 or (p.counter = 8 or p.counter = 10)) or (p.counter = 12 or (p.counter = 14 or p.counter = 16) or (p.counter = 18 or p.counter = 20 or (p.counter = 22 or p.counter = 24))) -> p.counter = 0 or (p.counter = 1 or p.counter = 3) or (p.counter = 5 or (p.counter = 7 or p.counter = 17)) or (p.counter = 19 or (p.counter = 21 or p.counter = 23) or (p.counter = 9 or p.counter = 11 or (p.counter = 13 or p.counter = 15)))
                    Event c_inc_even: p.counter = 0 or (p.counter = 1 or p.counter = 3) or (p.counter = 5 or (p.counter = 7 or p.counter = 17)) or (p.counter = 19 or (p.counter = 21 or p.counter = 23) or (p.counter = 9 or p.counter = 11 or (p.counter = 13 or p.counter = 15))) -> p.counter = 1 or (p.counter = 3 or p.counter = 5) or (p.counter = 7 or (p.counter = 17 or p.counter = 19)) or (p.counter = 21 or (p.counter = 23 or p.counter = 9) or (p.counter = 11 or (p.counter = 13 or p.counter = 15)))
                    All iterations end states: p.counter = 1 or (p.counter = 3 or p.counter = 5) or (p.counter = 7 or (p.counter = 17 or p.counter = 19)) or (p.counter = 21 or (p.counter = 23 or p.counter = 9) or (p.counter = 11 or (p.counter = 13 or p.counter = 15)))

                Iteration 2 (states before iteration: p.counter = 1 or (p.counter = 3 or p.counter = 5) or (p.counter = 7 or (p.counter = 17 or p.counter = 19)) or (p.counter = 21 or (p.counter = 23 or p.counter = 9) or (p.counter = 11 or (p.counter = 13 or p.counter = 15)))):
                    0 edges enabled. No state changes.
                    All iterations end states: p.counter = 1 or (p.counter = 3 or p.counter = 5) or (p.counter = 7 or (p.counter = 17 or p.counter = 19)) or (p.counter = 21 or (p.counter = 23 or p.counter = 9) or (p.counter = 11 or (p.counter = 13 or p.counter = 15)))

        Round 2:
            Pre input states: true
            Pre uncontrollables states: true
            Pre controllables states: p.counter = 0 or (p.counter = 2 or p.counter = 4) or (p.counter = 6 or (p.counter = 8 or p.counter = 10)) or (p.counter = 12 or (p.counter = 14 or p.counter = 16) or (p.counter = 18 or p.counter = 20 or (p.counter = 22 or p.counter = 24)))

            Applying event loop for input variable events:
                No input variable events.

            Applying event loop for uncontrollable events:
                Iteration 1 (states before iteration: true):
                    Event u_dec_odd: true -> p.counter = 0 or (p.counter = 2 or p.counter = 4) or (p.counter = 6 or (p.counter = 8 or p.counter = 10)) or (p.counter = 12 or (p.counter = 14 or p.counter = 16) or (p.counter = 18 or p.counter = 20 or (p.counter = 22 or p.counter = 24)))
                    All iterations end states: p.counter = 0 or (p.counter = 2 or p.counter = 4) or (p.counter = 6 or (p.counter = 8 or p.counter = 10)) or (p.counter = 12 or (p.counter = 14 or p.counter = 16) or (p.counter = 18 or p.counter = 20 or (p.counter = 22 or p.counter = 24)))

                Iteration 2 (states before iteration: p.counter = 0 or (p.counter = 2 or p.counter = 4) or (p.counter = 6 or (p.counter = 8 or p.counter = 10)) or (p.counter = 12 or (p.counter = 14 or p.counter = 16) or (p.counter = 18 or p.counter = 20 or (p.counter = 22 or p.counter = 24)))):
                    0 edges enabled. No state changes.
                    All iterations end states: p.counter = 0 or (p.counter = 2 or p.counter = 4) or (p.counter = 6 or (p.counter = 8 or p.counter = 10)) or (p.counter = 12 or (p.counter = 14 or p.counter = 16) or (p.counter = 18 or p.counter = 20 or (p.counter = 22 or p.counter = 24)))

            Applying event loop for controllable events:
                Iteration 1 (states before iteration: p.counter = 0 or (p.counter = 2 or p.counter = 4) or (p.counter = 6 or (p.counter = 8 or p.counter = 10)) or (p.counter = 12 or (p.counter = 14 or p.counter = 16) or (p.counter = 18 or p.counter = 20 or (p.counter = 22 or p.counter = 24)))):
                    Event c_dec_even: p.counter = 0 or (p.counter = 2 or p.counter = 4) or (p.counter = 6 or (p.counter = 8 or p.counter = 10)) or (p.counter = 12 or (p.counter = 14 or p.counter = 16) or (p.counter = 18 or p.counter = 20 or (p.counter = 22 or p.counter = 24))) -> p.counter = 0 or (p.counter = 1 or p.counter = 3) or (p.counter = 5 or (p.counter = 7 or p.counter = 17)) or (p.counter = 19 or (p.counter = 21 or p.counter = 23) or (p.counter = 9 or p.counter = 11 or (p.counter = 13 or p.counter = 15)))
                    Event c_inc_even: p.counter = 0 or (p.counter = 1 or p.counter = 3) or (p.counter = 5 or (p.counter = 7 or p.counter = 17)) or (p.counter = 19 or (p.counter = 21 or p.counter = 23) or (p.counter = 9 or p.counter = 11 or (p.counter = 13 or p.counter = 15))) -> p.counter = 1 or (p.counter = 3 or p.counter = 5) or (p.counter = 7 or (p.counter = 17 or p.counter = 19)) or (p.counter = 21 or (p.counter = 23 or p.counter = 9) or (p.counter = 11 or (p.counter = 13 or p.counter = 15)))
                    All iterations end states: p.counter = 1 or (p.counter = 3 or p.counter = 5) or (p.counter = 7 or (p.counter = 17 or p.counter = 19)) or (p.counter = 21 or (p.counter = 23 or p.counter = 9) or (p.counter = 11 or (p.counter = 13 or p.counter = 15)))

                Iteration 2 (states before iteration: p.counter = 1 or (p.counter = 3 or p.counter = 5) or (p.counter = 7 or (p.counter = 17 or p.counter = 19)) or (p.counter = 21 or (p.counter = 23 or p.counter = 9) or (p.counter = 11 or (p.counter = 13 or p.counter = 15)))):
                    0 edges enabled. No state changes.
                    All iterations end states: p.counter = 1 or (p.counter = 3 or p.counter = 5) or (p.counter = 7 or (p.counter = 17 or p.counter = 19)) or (p.counter = 21 or (p.counter = 23 or p.counter = 9) or (p.counter = 11 or (p.counter = 13 or p.counter = 15)))

    Computing bound for uncontrollable events:
        Iteration 1 (states before iteration: true):
            Event u_dec_odd: true -> p.counter = 0 or (p.counter = 2 or p.counter = 4) or (p.counter = 6 or (p.counter = 8 or p.counter = 10)) or (p.counter = 12 or (p.counter = 14 or p.counter = 16) or (p.counter = 18 or p.counter = 20 or (p.counter = 22 or p.counter = 24)))

        Iteration 2 (states before iteration: p.counter = 0 or (p.counter = 2 or p.counter = 4) or (p.counter = 6 or (p.counter = 8 or p.counter = 10)) or (p.counter = 12 or (p.counter = 14 or p.counter = 16) or (p.counter = 18 or p.counter = 20 or (p.counter = 22 or p.counter = 24)))):
            0 edges enabled. No state changes.

        Bound: 1.

    Computing bound for controllable events:
        Iteration 1 (states before iteration: p.counter = 0 or (p.counter = 2 or p.counter = 4) or (p.counter = 6 or (p.counter = 8 or p.counter = 10)) or (p.counter = 12 or (p.counter = 14 or p.counter = 16) or (p.counter = 18 or p.counter = 20 or (p.counter = 22 or p.counter = 24)))):
            Event c_dec_even: p.counter = 0 or (p.counter = 2 or p.counter = 4) or (p.counter = 6 or (p.counter = 8 or p.counter = 10)) or (p.counter = 12 or (p.counter = 14 or p.counter = 16) or (p.counter = 18 or p.counter = 20 or (p.counter = 22 or p.counter = 24))) -> p.counter = 0 or (p.counter = 1 or p.counter = 3) or (p.counter = 5 or (p.counter = 7 or p.counter = 17)) or (p.counter = 19 or (p.counter = 21 or p.counter = 23) or (p.counter = 9 or p.counter = 11 or (p.counter = 13 or p.counter = 15)))
            Event c_inc_even: p.counter = 0 or (p.counter = 1 or p.counter = 3) or (p.counter = 5 or (p.counter = 7 or p.counter = 17)) or (p.counter = 19 or (p.counter = 21 or p.counter = 23) or (p.counter = 9 or p.counter = 11 or (p.counter = 13 or p.counter = 15))) -> p.counter = 1 or (p.counter = 3 or p.counter = 5) or (p.counter = 7 or (p.counter = 17 or p.counter = 19)) or (p.counter = 21 or (p.counter = 23 or p.counter = 9) or (p.counter = 11 or (p.counter = 13 or p.counter = 15)))

        Iteration 2 (states before iteration: p.counter = 1 or (p.counter = 3 or p.counter = 5) or (p.counter = 7 or (p.counter = 17 or p.counter = 19)) or (p.counter = 21 or (p.counter = 23 or p.counter = 9) or (p.counter = 11 or (p.counter = 13 or p.counter = 15)))):
            0 edges enabled. No state changes.

        Bound: 1.

    Bounded response check completed.

CONCLUSION:
    [OK] The specification has bounded response:

        - At most 1 iteration is needed for the event loop for uncontrollable events.
        - At most 1 iteration is needed for the event loop for controllable events.

    [UNKNOWN] Non-blocking under control checking was disabled, non-blocking under control property is unknown.
    [UNKNOWN] Finite response checking was disabled, finite response property is unknown.
    [UNKNOWN] Confluence checking was disabled, confluence property is unknown.

The model with the check results has been written to "controllercheck/bounded_response/bounded_even_odd_any.Bxxx.out.cif.real".
