WARNING: The alphabet of the specification contains no controllable events.
WARNING: The alphabet of the specification contains no uncontrollable events.
WARNING: The specification contains no input variables.
ERROR: CIF controller properties checker failed due to unsatisfied preconditions:
 - Unsupported linearized edges with non-determinism detected for edges of controllable event "c_chan" with overlapping guards: "csend1.loc1 and crecv1.loc1", "csend1.loc1 and crecv2.loc1", "csend1.loc1 and crecv4.loc1", "csend2.loc1 and crecv2.loc1", "csend2.loc1 and crecv4.loc1", "csend3.loc1 and crecv2.loc1", "csend3.loc1 and crecv4.loc1", "csend1.loc1 and crecv3.loc1", "csend2.loc1 and crecv3.loc1", "csend3.loc1 and crecv3.loc1", "csend2.loc1 and crecv1.loc1", "csend3.loc1 and crecv1.loc1".
