Loading CIF specification "controllercheck/bounded_response/exec_scheme_event_order_sort.cif".
Checking for bounded response:
    Converting CIF specification to a BDD representation:
        CIF variables and location pointers:
            Nr     Kind               Type        Name                Group  BDD vars  CIF values  BDD values  Values used
            -----  -----------------  ----------  ------------------  -----  --------  ----------  ----------  -----------
            1      discrete variable  int[0..50]  event_order_sort.v  0      6 * 2     51 * 2      64 * 2      ~80%
            2      discrete variable  int[0..50]  event_order_sort.w  1      6 * 2     51 * 2      64 * 2      ~80%
            -----  -----------------  ----------  ------------------  -----  --------  ----------  ----------  -----------
            Total                                                     2      24        204         256         ~80%

        Applying variable ordering:
            Applying 4 orderers, sequentially:
                Applying sorted variable order:
                    Effect: both

                Applying DCSH algorithm:
                    Metric: wes
                    Relations: legacy
                    Effect: var-order
                    Number of hyper-edges: 12

                    Applying Weighted Cuthill-McKee algorithm:
                        Node finder: george-liu
                        Relations: legacy
                        Effect: var-order
                        Number of graph edges: 1

                        Total span:   2 (total)   0.17 (avg/edge) / WES:   0.208333 (total)   0.017361 (avg/edge) [before]
                        Total span:   2 (total)   0.17 (avg/edge) / WES:   0.208333 (total)   0.017361 (avg/edge) [after]

                    Found new best variable order.

                    Applying Sloan algorithm:
                        Relations: legacy
                        Effect: var-order
                        Number of graph edges: 1

                        Total span:   2 (total)   0.17 (avg/edge) / WES:   0.208333 (total)   0.017361 (avg/edge) [before]
                        Total span:   2 (total)   0.17 (avg/edge) / WES:   0.208333 (total)   0.017361 (avg/edge) [after]

                    Applying 2 orderers, sequentially:
                        Applying Weighted Cuthill-McKee algorithm:
                            Node finder: george-liu
                            Relations: legacy
                            Effect: var-order
                            Number of graph edges: 1

                            Total span:   2 (total)   0.17 (avg/edge) / WES:   0.208333 (total)   0.017361 (avg/edge) [before]
                            Total span:   2 (total)   0.17 (avg/edge) / WES:   0.208333 (total)   0.017361 (avg/edge) [after]

                        Reversing the variable order:
                            Relations: legacy
                            Effect: var-order
                            Number of hyper-edges: 12

                            Total span:   2 (total)   0.17 (avg/edge) / WES:   0.208333 (total)   0.017361 (avg/edge) [before]
                            Total span:   2 (total)   0.17 (avg/edge) / WES:   0.208333 (total)   0.017361 (avg/edge) [reversed]

                    Applying 2 orderers, sequentially:
                        Applying Sloan algorithm:
                            Relations: legacy
                            Effect: var-order
                            Number of graph edges: 1

                            Total span:   2 (total)   0.17 (avg/edge) / WES:   0.208333 (total)   0.017361 (avg/edge) [before]
                            Total span:   2 (total)   0.17 (avg/edge) / WES:   0.208333 (total)   0.017361 (avg/edge) [after]

                        Reversing the variable order:
                            Relations: legacy
                            Effect: var-order
                            Number of hyper-edges: 12

                            Total span:   2 (total)   0.17 (avg/edge) / WES:   0.208333 (total)   0.017361 (avg/edge) [before]
                            Total span:   2 (total)   0.17 (avg/edge) / WES:   0.208333 (total)   0.017361 (avg/edge) [reversed]

                Applying FORCE algorithm:
                    Metric: total-span
                    Relations: linearized
                    Effect: var-order
                    Number of hyper-edges: 4
                    Maximum number of iterations: 10

                    Total span:   1 (total)   0.25 (avg/edge) / WES:   0.250000 (total)   0.062500 (avg/edge) [before]
                    Total span:   1 (total)   0.25 (avg/edge) / WES:   0.250000 (total)   0.062500 (avg/edge) [iteration 1]
                    Total span:   1 (total)   0.25 (avg/edge) / WES:   0.250000 (total)   0.062500 (avg/edge) [after]

                Applying sliding window algorithm:
                    Size: 4
                    Metric: total-span
                    Relations: linearized
                    Effect: var-order
                    Number of hyper-edges: 4
                    Window length: 2

                    Total span:   1 (total)   0.25 (avg/edge) / WES:   0.250000 (total)   0.062500 (avg/edge) [before]
                    Total span:   1 (total)   0.25 (avg/edge) / WES:   0.250000 (total)   0.062500 (avg/edge) [after]

        Variable order unchanged.

        Restricting system behavior using state/event exclusion plant invariants:
            No guards changed.

    Computing states we can be in at the start of uncontrollable and controllable event loops:
        Round 1:
            Pre input states: <bdd 12n 1p>
            Pre uncontrollables states: false
            Pre controllables states: false

            Applying event loop for input variable events:
                No input variable events.

            Pre uncontrollables states: false -> <bdd 12n 1p>

            Applying event loop for uncontrollable events:
                No uncontrollable events.

            Pre controllables states: false -> <bdd 12n 1p>

            Applying event loop for controllable events:
                Iteration 1 (states before iteration: <bdd 12n 1p>):
                    Event event_order_sort.a: <bdd 12n 1p> -> <bdd 12n 1p>
                    Event event_order_sort.b: <bdd 12n 1p> -> <bdd 12n 1p>
                    Event event_order_sort.c: <bdd 12n 1p> -> <bdd 12n 1p>
                    All iterations end states: <bdd 12n 1p>

                Iteration 2 (states before iteration: <bdd 12n 1p>):
                    Event abc.e: <bdd 12n 1p> -> <bdd 12n 1p>
                    All iterations end states: <bdd 11n 1p>

                Iteration 3 (states before iteration: <bdd 12n 1p>):
                    Event abc.e: <bdd 12n 1p> -> <bdd 12n 1p>
                    All iterations end states: <bdd 12n 2p>

                Iteration 4 (states before iteration: <bdd 12n 1p>):
                    Event abc.e: <bdd 12n 1p> -> <bdd 12n 1p>
                    All iterations end states: event_order_sort.v = 12 and (0 <= event_order_sort.w and event_order_sort.w <= 3)

                Iteration 5 (states before iteration: <bdd 12n 1p>):
                    Event abc.e: <bdd 12n 1p> -> <bdd 12n 1p>
                    All iterations end states: <bdd 12n 3p>

                Iteration 6 (states before iteration: <bdd 12n 1p>):
                    Event abc.e: <bdd 12n 1p> -> <bdd 12n 1p>
                    All iterations end states: <bdd 11n 2p>

                Iteration 7 (states before iteration: <bdd 12n 1p>):
                    Event abc.e: <bdd 12n 1p> -> <bdd 12n 1p>
                    All iterations end states: <bdd 12n 3p>

                Iteration 8 (states before iteration: <bdd 12n 1p>):
                    Event abc.e: <bdd 12n 1p> -> <bdd 12n 1p>
                    All iterations end states: event_order_sort.v = 12 and (0 <= event_order_sort.w and event_order_sort.w <= 7)

                Iteration 9 (states before iteration: <bdd 12n 1p>):
                    Event abc.e: <bdd 12n 1p> -> <bdd 12n 1p>
                    All iterations end states: <bdd 12n 4p>

                Iteration 10 (states before iteration: <bdd 12n 1p>):
                    Event abc.e: <bdd 12n 1p> -> <bdd 12n 1p>
                    All iterations end states: <bdd 11n 3p>

                Iteration 11 (states before iteration: <bdd 12n 1p>):
                    Event abc.e: <bdd 12n 1p> -> <bdd 12n 1p>
                    All iterations end states: <bdd 12n 5p>

                Iteration 12 (states before iteration: <bdd 12n 1p>):
                    Event abc.e: <bdd 12n 1p> -> <bdd 12n 1p>
                    All iterations end states: event_order_sort.v = 12 and (0 <= event_order_sort.w and event_order_sort.w <= 3 or 8 <= event_order_sort.w and event_order_sort.w <= 11) or event_order_sort.v = 12 and (4 <= event_order_sort.w and event_order_sort.w <= 7)

                Iteration 13 (states before iteration: <bdd 12n 1p>):
                    Event abc.e: <bdd 12n 1p> -> <bdd 12n 1p>
                    All iterations end states: <bdd 12n 5p>

                Iteration 14 (states before iteration: <bdd 12n 1p>):
                    0 edges enabled. No state changes.
                    All iterations end states: <bdd 12n 5p>

            Pre input states: <bdd 12n 1p> -> <bdd 19n 2p>

        Round 2:
            Pre input states: <bdd 19n 2p>
            Pre uncontrollables states: <bdd 12n 1p>
            Pre controllables states: <bdd 12n 1p>

            Applying event loop for input variable events:
                No input variable events.

            Pre uncontrollables states: <bdd 12n 1p> -> <bdd 19n 2p>

            Applying event loop for uncontrollable events:
                No uncontrollable events.

            Pre controllables states: <bdd 12n 1p> -> <bdd 19n 2p>

            Applying event loop for controllable events:
                Iteration 1 (states before iteration: <bdd 19n 2p>):
                    Event event_order_sort.a: <bdd 19n 2p> -> <bdd 21n 2p>
                    Event event_order_sort.b: <bdd 21n 2p> -> <bdd 18n 2p>
                    Event event_order_sort.c: <bdd 18n 2p> -> <bdd 13n 2p>
                    All iterations end states: <bdd 13n 2p>

                Iteration 2 (states before iteration: <bdd 13n 2p>):
                    Event abc.e: <bdd 13n 2p> -> <bdd 15n 2p>
                    All iterations end states: <bdd 15n 3p>

                Iteration 3 (states before iteration: <bdd 15n 2p>):
                    Event abc.e: <bdd 15n 2p> -> <bdd 14n 2p>
                    All iterations end states: <bdd 15n 4p>

                Iteration 4 (states before iteration: <bdd 14n 2p>):
                    Event abc.e: <bdd 14n 2p> -> <bdd 15n 2p>
                    All iterations end states: <bdd 14n 4p>

                Iteration 5 (states before iteration: <bdd 15n 2p>):
                    Event abc.e: <bdd 15n 2p> -> <bdd 11n 1p>
                    All iterations end states: <bdd 13n 4p>

                Iteration 6 (states before iteration: <bdd 11n 1p>):
                    Event abc.e: <bdd 11n 1p> -> <bdd 15n 2p>
                    All iterations end states: <bdd 14n 5p>

                Iteration 7 (states before iteration: <bdd 15n 2p>):
                    Event abc.e: <bdd 15n 2p> -> <bdd 14n 2p>
                    All iterations end states: <bdd 14n 5p>

                Iteration 8 (states before iteration: <bdd 14n 2p>):
                    Event abc.e: <bdd 14n 2p> -> <bdd 15n 2p>
                    All iterations end states: <bdd 12n 4p>

                Iteration 9 (states before iteration: <bdd 15n 2p>):
                    Event abc.e: <bdd 15n 2p> -> <bdd 11n 1p>
                    All iterations end states: <bdd 11n 3p>

                Iteration 10 (states before iteration: <bdd 11n 1p>):
                    Event abc.e: <bdd 11n 1p> -> <bdd 14n 2p>
                    All iterations end states: <bdd 13n 5p>

                Iteration 11 (states before iteration: <bdd 14n 2p>):
                    Event abc.e: <bdd 14n 2p> -> <bdd 13n 2p>
                    All iterations end states: <bdd 13n 6p>

                Iteration 12 (states before iteration: <bdd 13n 2p>):
                    Event abc.e: <bdd 13n 2p> -> <bdd 14n 2p>
                    All iterations end states: <bdd 12n 5p>

                Iteration 13 (states before iteration: <bdd 14n 2p>):
                    Event abc.e: <bdd 14n 2p> -> <bdd 12n 1p>
                    All iterations end states: <bdd 12n 5p>

        Round 3:
            Pre input states: <bdd 19n 2p>
            Pre uncontrollables states: <bdd 19n 2p>
            Pre controllables states: <bdd 19n 2p>

            Applying event loop for input variable events:
                No input variable events.

            Applying event loop for uncontrollable events:
                No uncontrollable events.

            Applying event loop for controllable events:
                Iteration 1 (states before iteration: <bdd 19n 2p>):
                    Event event_order_sort.a: <bdd 19n 2p> -> <bdd 21n 2p>
                    Event event_order_sort.b: <bdd 21n 2p> -> <bdd 18n 2p>
                    Event event_order_sort.c: <bdd 18n 2p> -> <bdd 13n 2p>
                    All iterations end states: <bdd 13n 2p>

                Iteration 2 (states before iteration: <bdd 13n 2p>):
                    Event abc.e: <bdd 13n 2p> -> <bdd 15n 2p>
                    All iterations end states: <bdd 15n 3p>

                Iteration 3 (states before iteration: <bdd 15n 2p>):
                    Event abc.e: <bdd 15n 2p> -> <bdd 14n 2p>
                    All iterations end states: <bdd 15n 4p>

                Iteration 4 (states before iteration: <bdd 14n 2p>):
                    Event abc.e: <bdd 14n 2p> -> <bdd 15n 2p>
                    All iterations end states: <bdd 14n 4p>

                Iteration 5 (states before iteration: <bdd 15n 2p>):
                    Event abc.e: <bdd 15n 2p> -> <bdd 11n 1p>
                    All iterations end states: <bdd 13n 4p>

                Iteration 6 (states before iteration: <bdd 11n 1p>):
                    Event abc.e: <bdd 11n 1p> -> <bdd 15n 2p>
                    All iterations end states: <bdd 14n 5p>

                Iteration 7 (states before iteration: <bdd 15n 2p>):
                    Event abc.e: <bdd 15n 2p> -> <bdd 14n 2p>
                    All iterations end states: <bdd 14n 5p>

                Iteration 8 (states before iteration: <bdd 14n 2p>):
                    Event abc.e: <bdd 14n 2p> -> <bdd 15n 2p>
                    All iterations end states: <bdd 12n 4p>

                Iteration 9 (states before iteration: <bdd 15n 2p>):
                    Event abc.e: <bdd 15n 2p> -> <bdd 11n 1p>
                    All iterations end states: <bdd 11n 3p>

                Iteration 10 (states before iteration: <bdd 11n 1p>):
                    Event abc.e: <bdd 11n 1p> -> <bdd 14n 2p>
                    All iterations end states: <bdd 13n 5p>

                Iteration 11 (states before iteration: <bdd 14n 2p>):
                    Event abc.e: <bdd 14n 2p> -> <bdd 13n 2p>
                    All iterations end states: <bdd 13n 6p>

                Iteration 12 (states before iteration: <bdd 13n 2p>):
                    Event abc.e: <bdd 13n 2p> -> <bdd 14n 2p>
                    All iterations end states: <bdd 12n 5p>

                Iteration 13 (states before iteration: <bdd 14n 2p>):
                    Event abc.e: <bdd 14n 2p> -> <bdd 12n 1p>
                    All iterations end states: <bdd 12n 5p>

    Computing bound for uncontrollable events:
        No uncontrollable events.

        Bound: 0.

    Computing bound for controllable events:
        Iteration 1 (states before iteration: <bdd 19n 2p>):
            Event event_order_sort.a: <bdd 19n 2p> -> <bdd 21n 2p>
            Event event_order_sort.b: <bdd 21n 2p> -> <bdd 18n 2p>
            Event event_order_sort.c: <bdd 18n 2p> -> <bdd 13n 2p>

        Iteration 2 (states before iteration: <bdd 13n 2p>):
            Event abc.e: <bdd 13n 2p> -> <bdd 15n 2p>

        Iteration 3 (states before iteration: <bdd 15n 2p>):
            Event abc.e: <bdd 15n 2p> -> <bdd 14n 2p>

        Iteration 4 (states before iteration: <bdd 14n 2p>):
            Event abc.e: <bdd 14n 2p> -> <bdd 15n 2p>

        Iteration 5 (states before iteration: <bdd 15n 2p>):
            Event abc.e: <bdd 15n 2p> -> <bdd 11n 1p>

        Iteration 6 (states before iteration: <bdd 11n 1p>):
            Event abc.e: <bdd 11n 1p> -> <bdd 15n 2p>

        Iteration 7 (states before iteration: <bdd 15n 2p>):
            Event abc.e: <bdd 15n 2p> -> <bdd 14n 2p>

        Iteration 8 (states before iteration: <bdd 14n 2p>):
            Event abc.e: <bdd 14n 2p> -> <bdd 15n 2p>

        Iteration 9 (states before iteration: <bdd 15n 2p>):
            Event abc.e: <bdd 15n 2p> -> <bdd 11n 1p>

        Iteration 10 (states before iteration: <bdd 11n 1p>):
            Event abc.e: <bdd 11n 1p> -> <bdd 14n 2p>

        Iteration 11 (states before iteration: <bdd 14n 2p>):
            Event abc.e: <bdd 14n 2p> -> <bdd 13n 2p>

        Iteration 12 (states before iteration: <bdd 13n 2p>):
            Event abc.e: <bdd 13n 2p> -> <bdd 14n 2p>

        Iteration 13 (states before iteration: <bdd 14n 2p>):
            Event abc.e: <bdd 14n 2p> -> <bdd 12n 1p>

        Iteration 14 (states before iteration: <bdd 12n 1p>):
            0 edges enabled. No state changes.

        Bound: 13.

    Bounded response check completed.

CONCLUSION:
    [OK] The specification has bounded response:

        - No transitions are possible for uncontrollable events.
        - At most 13 iterations are needed for the event loop for controllable events.

    [UNKNOWN] Non-blocking under control checking was disabled, non-blocking under control property is unknown.
    [UNKNOWN] Finite response checking was disabled, finite response property is unknown.
    [UNKNOWN] Confluence checking was disabled, confluence property is unknown.

The model with the check results has been written to "controllercheck/bounded_response/exec_scheme_event_order_sort.Bxxx.out.cif.real".
