Loading CIF specification "controllercheck/bounded_response/svgin_remove.cif".
Checking for bounded response:
    Converting CIF specification to a BDD representation:
        The specification has no BDD variables.

        Restricting system behavior using state/event exclusion plant invariants:
            No guards changed.

    Computing states we can be in at the start of uncontrollable and controllable event loops:
        Round 1:
            Pre input states: true
            Pre uncontrollables states: false
            Pre controllables states: false

            Applying event loop for input variable events:
                No input variable events.

            Pre uncontrollables states: false -> true

            Applying event loop for uncontrollable events:
                No uncontrollable events.

            Pre controllables states: false -> true

            Applying event loop for controllable events:
                Iteration 1 (states before iteration: true):
                    1 edge enabled. No state changes.
                    All iterations end states: true

                Iteration 2 (states before iteration: true):
                    1 edge enabled. No state changes.
                    All iterations end states: true

        Round 2:
            Pre input states: true
            Pre uncontrollables states: true
            Pre controllables states: true

            Applying event loop for input variable events:
                No input variable events.

            Applying event loop for uncontrollable events:
                No uncontrollable events.

            Applying event loop for controllable events:
                Iteration 1 (states before iteration: true):
                    1 edge enabled. No state changes.
                    All iterations end states: true

                Iteration 2 (states before iteration: true):
                    1 edge enabled. No state changes.
                    All iterations end states: true

    Computing bound for uncontrollable events:
        No uncontrollable events.

        Bound: 0.

    Computing bound for controllable events:
        Iteration 1 (states before iteration: true):
            1 edge enabled. No state changes.

        Bound: n/a (cycle).

    Bounded response check completed.

CONCLUSION:
    [ERROR] The specification does NOT have bounded response:

        - No transitions are possible for uncontrollable events.
        - An infinite sequence of transitions is possible for controllable events.

          Edge enabled in cycle(s):
            (event: c_e) (guard: true)

          States in cycle(s) at end of event loop executions:
            (empty state; no variables)

    [UNKNOWN] Non-blocking under control checking was disabled, non-blocking under control property is unknown.
    [UNKNOWN] Finite response checking was disabled, finite response property is unknown.
    [UNKNOWN] Confluence checking was disabled, confluence property is unknown.

The model with the check results has been written to "controllercheck/bounded_response/svgin_remove.Bxxx.out.cif.real".
