Reading CIF file "datasynth/simplify_state_req_invs_on.cif".

Preprocessing CIF specification (includes checking that the specification is supported).

Converting CIF specification to internal format (BDDs):
    CIF variables and location pointers:
        Nr     Kind               Type       Name  Group  BDD vars  CIF values  BDD values  Values used
        -----  -----------------  ---------  ----  -----  --------  ----------  ----------  -----------
        1      location pointer   n/a        p     0      1 * 2     2 * 2       2 * 2       100%
        2      discrete variable  int[0..5]  p.x   1      3 * 2     6 * 2       8 * 2       75%
        -----  -----------------  ---------  ----  -----  --------  ----------  ----------  -----------
        Total                                      2      8         16          20          80%

    Applying variable ordering:
        Applying 4 orderers, sequentially:
            Applying model variable order:
                Effect: both

            Applying DCSH algorithm:
                Metric: wes
                Relations: legacy
                Effect: var-order
                Number of hyper-edges: 3

                Applying Weighted Cuthill-McKee algorithm:
                    Node finder: george-liu
                    Relations: legacy
                    Effect: var-order
                    Number of graph edges: 1

                    Total span:   1 (total)   0.33 (avg/edge) / WES:   0.500000 (total)   0.166667 (avg/edge) [before]
                    Total span:   1 (total)   0.33 (avg/edge) / WES:   0.500000 (total)   0.166667 (avg/edge) [after]

                Found new best variable order.

                Applying Sloan algorithm:
                    Relations: legacy
                    Effect: var-order
                    Number of graph edges: 1

                    Total span:   1 (total)   0.33 (avg/edge) / WES:   0.500000 (total)   0.166667 (avg/edge) [before]
                    Total span:   1 (total)   0.33 (avg/edge) / WES:   0.500000 (total)   0.166667 (avg/edge) [after]

                Applying 2 orderers, sequentially:
                    Applying Weighted Cuthill-McKee algorithm:
                        Node finder: george-liu
                        Relations: legacy
                        Effect: var-order
                        Number of graph edges: 1

                        Total span:   1 (total)   0.33 (avg/edge) / WES:   0.500000 (total)   0.166667 (avg/edge) [before]
                        Total span:   1 (total)   0.33 (avg/edge) / WES:   0.500000 (total)   0.166667 (avg/edge) [after]

                    Reversing the variable order:
                        Relations: legacy
                        Effect: var-order
                        Number of hyper-edges: 3

                        Total span:   1 (total)   0.33 (avg/edge) / WES:   0.500000 (total)   0.166667 (avg/edge) [before]
                        Total span:   1 (total)   0.33 (avg/edge) / WES:   0.500000 (total)   0.166667 (avg/edge) [reversed]

                Applying 2 orderers, sequentially:
                    Applying Sloan algorithm:
                        Relations: legacy
                        Effect: var-order
                        Number of graph edges: 1

                        Total span:   1 (total)   0.33 (avg/edge) / WES:   0.500000 (total)   0.166667 (avg/edge) [before]
                        Total span:   1 (total)   0.33 (avg/edge) / WES:   0.500000 (total)   0.166667 (avg/edge) [after]

                    Reversing the variable order:
                        Relations: legacy
                        Effect: var-order
                        Number of hyper-edges: 3

                        Total span:   1 (total)   0.33 (avg/edge) / WES:   0.500000 (total)   0.166667 (avg/edge) [before]
                        Total span:   1 (total)   0.33 (avg/edge) / WES:   0.500000 (total)   0.166667 (avg/edge) [reversed]

            Applying FORCE algorithm:
                Metric: total-span
                Relations: linearized
                Effect: var-order
                Number of hyper-edges: 2
                Maximum number of iterations: 10

                Total span:   0 (total)   0.00 (avg/edge) / WES:   0.000000 (total)   0.000000 (avg/edge) [before]
                Total span:   0 (total)   0.00 (avg/edge) / WES:   0.000000 (total)   0.000000 (avg/edge) [iteration 1]
                Total span:   0 (total)   0.00 (avg/edge) / WES:   0.000000 (total)   0.000000 (avg/edge) [after]

            Applying sliding window algorithm:
                Size: 4
                Metric: total-span
                Relations: linearized
                Effect: var-order
                Number of hyper-edges: 2
                Window length: 2

                Total span:   0 (total)   0.00 (avg/edge) / WES:   0.000000 (total)   0.000000 (avg/edge) [before]
                Total span:   0 (total)   0.00 (avg/edge) / WES:   0.000000 (total)   0.000000 (avg/edge) [after]

    Variable order unchanged.

Starting data-based synthesis.

Synthesis input:
    Invariant (components state plant inv):      true
    Invariant (locations state plant invariant): true
    Invariant (system state plant invariant):    true

    Invariant (component state req invariant):   (p.loc2 or (p.x = 1 or 3 <= p.x and p.x <= 5)) and (p.loc2 or p.x != 1)
    Invariant (components state req invariant):  (p.loc2 or (p.x = 1 or 3 <= p.x and p.x <= 5)) and (p.loc2 or p.x != 1)
    Invariant (location state req invariant):    p.loc1 or (p.x = 4 or p.x = 5)
    Invariant (locations state req invariant):   p.loc1 or (p.x = 4 or p.x = 5)
    Invariant (system state req invariant):      p.loc1 and p.x = 4 or p.loc1 and p.x = 5 or (p.loc1 and p.x = 3 or p.loc2 and (p.x = 4 or p.x = 5))

    Initial   (discrete variable 1):             true
    Initial   (discrete variables):              true
    Initial   (components init predicate):       true
    Initial   (aut/locs init predicate):         p.loc1
    Initial   (auts/locs init predicate):        p.loc1
    Initial   (uncontrolled system):             p.loc1
    Initial   (system, combined init/plant inv): p.loc1
    Initial   (system, combined init/state inv): p.loc1 and p.x = 4 or (p.loc1 and p.x = 5 or p.loc1 and p.x = 3)

    Marked    (components marker predicate):     true
    Marked    (aut/locs marker predicate):       p.loc1
    Marked    (auts/locs marker predicate):      p.loc1
    Marked    (uncontrolled system):             p.loc1
    Marked    (system, combined mark/plant inv): p.loc1
    Marked    (system, combined mark/state inv): p.loc1 and p.x = 4 or (p.loc1 and p.x = 5 or p.loc1 and p.x = 3)

    State/event exclusion plants:
        None

    State/event exclusion requirements:
        None

    Uncontrolled system:
        State: (controlled-behavior: ?)
            Edge: (event: e) (guard: p.loc1) (assignments: p := p.loc2)
            Edge: (event: e) (guard: p.loc2) (assignments: p := p.loc1)

Checking input for potential problems.

Restricting edge guards to prevent runtime errors:
    No guards changed.

Restricting uncontrolled system behavior using state/event exclusion plant invariants:
    No guards changed.

Initializing edges for being applied.

Restricting uncontrolled system behavior using state plant invariants:
    No restrictions needed.

Initializing controlled behavior:
    Controlled-behavior predicate: true.
    Controlled-initialization predicate: p.loc1.

Restricting behavior using state requirements:
    Controlled behavior: true -> p.loc1 and p.x = 4 or p.loc1 and p.x = 5 or (p.loc1 and p.x = 3 or p.loc2 and (p.x = 4 or p.x = 5)) [state requirements: p.loc1 and p.x = 4 or p.loc1 and p.x = 5 or (p.loc1 and p.x = 3 or p.loc2 and (p.x = 4 or p.x = 5))].

Extending controlled-behavior predicate using variable ranges:
    Controlled behavior: p.loc1 and p.x = 4 or p.loc1 and p.x = 5 or (p.loc1 and p.x = 3 or p.loc2 and (p.x = 4 or p.x = 5)) -> p.loc1 and p.x = 4 or p.loc1 and p.x = 5 or (p.loc1 and p.x = 3 or p.loc2 and (p.x = 4 or p.x = 5)) [range: true, variable: discrete variable "p.x" of type "int[0..5]" (group: 1, domain: 2+3, BDD variables: 3, CIF/BDD values: 6/8)].

    Extended controlled-behavior predicate using variable ranges: p.loc1 and p.x = 4 or p.loc1 and p.x = 5 or (p.loc1 and p.x = 3 or p.loc2 and (p.x = 4 or p.x = 5)).

Restricting behavior using state/event exclusion requirements:
    Guards and controlled behavior not changed.

Restricting behavior using implicit runtime error requirements:
    Controlled behavior not changed.

Re-initializing edges for being applied.

Checking pre-synthesis for events that are never enabled.

Synthesis round 1:
    Computing backward controlled-behavior predicate:
        Saturation matrix:
                /-------- 1 p#0
                |/------- 2 p#0+
                ||/------ 3 p.x#0
                |||/----- 4 p.x#0+
                ||||/---- 5 p.x#1
                |||||/--- 6 p.x#1+
                ||||||/-- 7 p.x#2
                |||||||/- 8 p.x#2+
            1 e rw
            2 e rw

        Backward controlled-behavior: p.loc1 [marker predicate]
        Backward controlled-behavior: p.loc1 -> p.loc1 and p.x = 4 or (p.loc1 and p.x = 5 or p.loc1 and p.x = 3) [restricted to current/previous controlled-behavior predicate: p.loc1 and p.x = 4 or p.loc1 and p.x = 5 or (p.loc1 and p.x = 3 or p.loc2 and (p.x = 4 or p.x = 5))]
        Backward controlled-behavior: p.loc1 and p.x = 4 or (p.loc1 and p.x = 5 or p.loc1 and p.x = 3) -> p.loc1 and p.x = 4 or p.loc1 and p.x = 5 or (p.loc1 and p.x = 3 or p.loc2 and (p.x = 4 or p.x = 5)) [backward reach using bounded saturation (transition: 2 of 2) (level: 1 of 8) with edge: (event: e) (guard: p.loc2) (assignments: p := p.loc1)]

        Backward controlled-behavior: p.loc1 and p.x = 4 or p.loc1 and p.x = 5 or (p.loc1 and p.x = 3 or p.loc2 and (p.x = 4 or p.x = 5)) [fixed point].

        Controlled behavior not changed.

    Computing backward uncontrolled bad-state predicate:
        Saturation matrix:
            No edges.

        Backward uncontrolled bad-state: (p.loc2 or p.x != 4) and (p.loc2 or p.x != 5) and ((p.loc2 or p.x != 3) and (p.loc1 or 0 <= p.x and p.x <= 3)) [current/previous controlled behavior predicate]

        Controlled behavior not changed.

    Computing forward controlled-behavior predicate:
        Saturation matrix:
                /-------- 1 p#0
                |/------- 2 p#0+
                ||/------ 3 p.x#0
                |||/----- 4 p.x#0+
                ||||/---- 5 p.x#1
                |||||/--- 6 p.x#1+
                ||||||/-- 7 p.x#2
                |||||||/- 8 p.x#2+
            1 e rw
            2 e rw

        Forward controlled-behavior: p.loc1 [initialization predicate]
        Forward controlled-behavior: p.loc1 -> p.loc1 and p.x = 4 or (p.loc1 and p.x = 5 or p.loc1 and p.x = 3) [restricted to current/previous controlled-behavior predicate: p.loc1 and p.x = 4 or p.loc1 and p.x = 5 or (p.loc1 and p.x = 3 or p.loc2 and (p.x = 4 or p.x = 5))]
        Forward controlled-behavior: p.loc1 and p.x = 4 or (p.loc1 and p.x = 5 or p.loc1 and p.x = 3) -> p.loc1 and p.x = 4 or p.loc1 and p.x = 5 or (p.loc1 and p.x = 3 or p.loc2 and (p.x = 4 or p.x = 5)) [forward reach using bounded saturation (transition: 1 of 2) (level: 1 of 8) with edge: (event: e) (guard: p.loc1) (assignments: p := p.loc2)]

        Forward controlled-behavior: p.loc1 and p.x = 4 or p.loc1 and p.x = 5 or (p.loc1 and p.x = 3 or p.loc2 and (p.x = 4 or p.x = 5)) [fixed point].

        Controlled behavior not changed.

    Finished: controlled behavior is stable.

Computing final controlled system guards:
    Edge (event: e) (guard: p.loc1) (assignments: p := p.loc2): guard: p.loc1 -> p.loc1 and (p.x = 4 or p.x = 5).
    Edge (event: e) (guard: p.loc2) (assignments: p := p.loc1): guard: p.loc2 -> p.loc2 and p.x = 4 or (p.loc2 and p.x = 5 or p.loc2 and p.x = 3).

Cleaning up cached predicate of edges that were used when applying edges.

Final synthesis result:
    State: (controlled-behavior: p.loc1 and p.x = 4 or p.loc1 and p.x = 5 or (p.loc1 and p.x = 3 or p.loc2 and (p.x = 4 or p.x = 5)))
        Edge: (event: e) (guard: p.loc1 -> p.loc1 and (p.x = 4 or p.x = 5)) (assignments: p := p.loc2)
        Edge: (event: e) (guard: p.loc2 -> p.loc2 and p.x = 4 or (p.loc2 and p.x = 5 or p.loc2 and p.x = 3)) (assignments: p := p.loc1)

Computing initialization predicate of the controlled system.

Controlled system: exactly 5 states.

Determining initialization predicate for output model:
    Initial (synthesis result):            p.loc1 and p.x = 4 or p.loc1 and p.x = 5 or (p.loc1 and p.x = 3 or p.loc2 and (p.x = 4 or p.x = 5))
    Initial (uncontrolled system):         p.loc1
    Initial (controlled system):           p.loc1 and p.x = 4 or (p.loc1 and p.x = 5 or p.loc1 and p.x = 3)
    Initial (removed by supervisor):       p.loc1 and (p.x = 0 or p.x = 2) or p.loc1 and p.x = 1
    Initial (added by supervisor):         (p.loc2 or (p.x = 1 or 3 <= p.x and p.x <= 5)) and (p.loc2 or p.x != 1)

    Initial (output model):                p.loc1 and p.x = 4 or (p.loc1 and p.x = 5 or p.loc1 and p.x = 3)

Determining supervisor guards for output model:
    Event e: guard: p.loc1 and (p.x = 4 or p.x = 5) or p.loc2 and p.x = 4 or (p.loc2 and p.x = 5 or p.loc2 and p.x = 3).

Checking post-synthesis for events that are never enabled.

Simplifying supervisor guards for output model:
    Simplification under the assumption of the state requirement invariants.

    Event e: guard: p.loc1 and (p.x = 4 or p.x = 5) or p.loc2 and p.x = 4 or (p.loc2 and p.x = 5 or p.loc2 and p.x = 3) -> not(p.x = 2 or p.x = 3) [assume p.loc1 and p.x = 4 or p.loc1 and p.x = 5 or (p.loc1 and p.x = 3 or p.loc2 and (p.x = 4 or p.x = 5))].

Constructing output CIF specification.

Checking output CIF specification.

Writing output CIF file "datasynth/simplify_state_req_invs_on.ctrlsys.real.cif".
