Plant groups:
,PG1,PG2
I,1,0
P,0,1

Requirement groups:
,RG1
requirement invariant R.R1 disables evt2,1
invname,1
R,1

Requirement / Plant relations:
,PG1,PG2
RG1,0,0

Unclustered reqsPlants:
  0 0
  0 0

--- Start of clustering --
    Flow-based Markov clustering for 2 nodes.
    No bus found.

    subjAdjacencies:
    BlockRealMatrix{{0.0,0.0},{0.0,0.0}}

    probData:
    BlockRealMatrix{{1.0,0.0},{0.0,1.0}}

    Input to Markov:
    BlockRealMatrix{{1.0,0.0},{0.0,1.0}}
    Output from Markov:
    BlockRealMatrix{{1.0,0.0},{0.0,1.0}}

    Clustering-group found:
      - Grouptype CLUSTER
        Local nodes: <none>
          - Grouptype CLUSTER
            Local nodes: {0}
          - Grouptype CLUSTER
            Local nodes: {1}

    Node mapping new <- original:
      0 <- 0
      1 <- 1

    Shuffled nodes of groups near each other:
      - Grouptype CLUSTER
        Local nodes: <none>
          - Grouptype CLUSTER
            Local nodes: {0}
          - Grouptype CLUSTER
            Local nodes: {1}
--- End of clustering --

Clustered DSM for reqsPlantsDmm (for information only, this data is not actually used):
  0 0
  0 0

Make a multi-level tree node for a cluster group with multiple nodes:
        - Grouptype CLUSTER
          Local nodes: <none>
            - Grouptype CLUSTER
              Local nodes: {0}
            - Grouptype CLUSTER
              Local nodes: {1}

    Starting Algorithm 2 by searching and modifying the matrices based on group information.
        Dumping P:
               :  0  1
              0:  .  .
              1:  .  .

        Dumping RP:
              0: {}


        Updated Algorithm 2 data for cluster group members {0, 1}: {} plant groups, {} req groups.
        Updated matrices:
            Dumping P:
                   :  0  1
                  0:  .  .
                  1:  .  .

            Dumping RP:
                  0: {}


    Make a multi-level tree node for a cluster group with a single node (plant group 0):
        Dumping P:
               :  0  1
              0:  .  .
              1:  .  .

        Dumping RP:
              0: {}

        Tree node for singleton cluster group 0: {0} plant groups, {} req groups.

    ---------- DONE Created tree node for cluster with a single node.

    Make a multi-level tree node for a cluster group with a single node (plant group 1):
        Dumping P:
               :  0  1
              0:  .  .
              1:  .  .

        Dumping RP:
              0: {}

        Tree node for singleton cluster group 1: {1} plant groups, {} req groups.

    ---------- DONE Created tree node for cluster with a single node.

---------- DONE Created tree node for cluster with multiple nodes.

Partial specification "partialSpec.cif":
    Plants:
        None.

    Requirements:
        None.

    Children of the partial specification:
        - Partial specification "partialSpec_1.cif".
        - Partial specification "partialSpec_2.cif".

Partial specification "partialSpec_1.cif":
    Plants:
        - Plant "I".

    Requirements:
        None.

    Children of the partial specification:
        None.

Partial specification "partialSpec_2.cif":
    Plants:
        - Plant "P".

    Requirements:
        None.

    Children of the partial specification:
        None.
Wrote 3 partial specifications to directory "multilevel/unrelated_actual_specs".
