Loading CIF specification "controllercheck/confluence/independence1.cif".
Checking for confluence:
    Converting CIF specification to a BDD representation:
        CIF variables and location pointers:
            Nr     Kind               Type       Name               Group  BDD vars  CIF values  BDD values  Values used
            -----  -----------------  ---------  -----------------  -----  --------  ----------  ----------  -----------
            1      location pointer   n/a        AutDifferenLocs    0      2 * 4     4 * 4       4 * 4       100%
            2      discrete variable  bool       AutDifferenLocs.z  1      1 * 4     2 * 4       2 * 4       100%
            3      discrete variable  int[0..2]  AutDifferenLocs.v  2      2 * 4     3 * 4       4 * 4       75%
            -----  -----------------  ---------  -----------------  -----  --------  ----------  ----------  -----------
            Total                                                   3      20        36          40          90%

        Applying variable ordering:
            Applying 4 orderers, sequentially:
                Applying sorted variable order:
                    Effect: both

                Applying DCSH algorithm:
                    Metric: wes
                    Relations: legacy
                    Effect: var-order
                    Number of hyper-edges: 6

                    Applying Weighted Cuthill-McKee algorithm:
                        Node finder: george-liu
                        Relations: legacy
                        Effect: var-order
                        Number of graph edges: 2

                        Total span:   3 (total)   0.50 (avg/edge) / WES:   0.518519 (total)   0.086420 (avg/edge) [before]
                        Total span:   2 (total)   0.33 (avg/edge) / WES:   0.370370 (total)   0.061728 (avg/edge) [after]

                    Found new best variable order.

                    Applying Sloan algorithm:
                        Relations: legacy
                        Effect: var-order
                        Number of graph edges: 2

                        Total span:   3 (total)   0.50 (avg/edge) / WES:   0.518519 (total)   0.086420 (avg/edge) [before]
                        Total span:   2 (total)   0.33 (avg/edge) / WES:   0.370370 (total)   0.061728 (avg/edge) [after]

                    Applying 2 orderers, sequentially:
                        Applying Weighted Cuthill-McKee algorithm:
                            Node finder: george-liu
                            Relations: legacy
                            Effect: var-order
                            Number of graph edges: 2

                            Total span:   3 (total)   0.50 (avg/edge) / WES:   0.518519 (total)   0.086420 (avg/edge) [before]
                            Total span:   2 (total)   0.33 (avg/edge) / WES:   0.370370 (total)   0.061728 (avg/edge) [after]

                        Reversing the variable order:
                            Relations: legacy
                            Effect: var-order
                            Number of hyper-edges: 6

                            Total span:   2 (total)   0.33 (avg/edge) / WES:   0.370370 (total)   0.061728 (avg/edge) [before]
                            Total span:   2 (total)   0.33 (avg/edge) / WES:   0.370370 (total)   0.061728 (avg/edge) [reversed]

                    Applying 2 orderers, sequentially:
                        Applying Sloan algorithm:
                            Relations: legacy
                            Effect: var-order
                            Number of graph edges: 2

                            Total span:   3 (total)   0.50 (avg/edge) / WES:   0.518519 (total)   0.086420 (avg/edge) [before]
                            Total span:   2 (total)   0.33 (avg/edge) / WES:   0.370370 (total)   0.061728 (avg/edge) [after]

                        Reversing the variable order:
                            Relations: legacy
                            Effect: var-order
                            Number of hyper-edges: 6

                            Total span:   2 (total)   0.33 (avg/edge) / WES:   0.370370 (total)   0.061728 (avg/edge) [before]
                            Total span:   2 (total)   0.33 (avg/edge) / WES:   0.370370 (total)   0.061728 (avg/edge) [reversed]

                Applying FORCE algorithm:
                    Metric: total-span
                    Relations: linearized
                    Effect: var-order
                    Number of hyper-edges: 4
                    Maximum number of iterations: 20

                    Total span:   4 (total)   1.00 (avg/edge) / WES:   0.666667 (total)   0.166667 (avg/edge) [before]
                    Total span:   4 (total)   1.00 (avg/edge) / WES:   0.666667 (total)   0.166667 (avg/edge) [iteration 1]
                    Total span:   4 (total)   1.00 (avg/edge) / WES:   0.666667 (total)   0.166667 (avg/edge) [after]

                Applying sliding window algorithm:
                    Size: 4
                    Metric: total-span
                    Relations: linearized
                    Effect: var-order
                    Number of hyper-edges: 4
                    Window length: 3

                    Total span:   4 (total)   1.00 (avg/edge) / WES:   0.666667 (total)   0.166667 (avg/edge) [before]
                    Total span:   4 (total)   1.00 (avg/edge) / WES:   0.666667 (total)   0.166667 (avg/edge) [after]

        Variable order changed.

        CIF variables and location pointers:
            Nr     Kind               Type       Name               Group  BDD vars  CIF values  BDD values  Values used
            -----  -----------------  ---------  -----------------  -----  --------  ----------  ----------  -----------
            1      discrete variable  bool       AutDifferenLocs.z  0      1 * 4     2 * 4       2 * 4       100%
            2      location pointer   n/a        AutDifferenLocs    1      2 * 4     4 * 4       4 * 4       100%
            3      discrete variable  int[0..2]  AutDifferenLocs.v  2      2 * 4     3 * 4       4 * 4       75%
            -----  -----------------  ---------  -----------------  -----  --------  ----------  ----------  -----------
            Total                                                   3      20        36          40          90%

        Restricting system behavior using state/event exclusion plant invariants:
            No guards changed.

    Independent event pairs:
        (AutDifferenLocs.a, AutDifferenLocs.b)

    All pairs proven. Confluence holds.

CONCLUSION:
    [UNKNOWN] Bounded response checking was disabled, bounded response property is unknown.
    [UNKNOWN] Non-blocking under control checking was disabled, non-blocking under control property is unknown.
    [UNKNOWN] Finite response checking was disabled, finite response property is unknown.
    [OK] The specification has confluence.

The model with the check results has been written to "controllercheck/confluence/independence1.xCxx.out.cif.real".
