ERROR: Code generation to HTML failed for CIF file "codegen/unsupported2.cif".
CAUSE: CIF code generator failed due to unsatisfied preconditions:

  ----------------------------------------------------------------------------
  (1/1) Specification does not have at least 1 automaton (no automaton found).
  ----------------------------------------------------------------------------
